…
This function fits a K-Nearest Neighbor (KNN) model to the provided data
and computes a domain applicability score based on PCA distances.

``` r
# Example usage of knn_domain_score
domain_scores <- knn_domain_score(
  featured = "cd_2022",
  train_data = viral |> dplyr::select(cd_2022, vl_2022),
  knn_hyperparameters = list(neighbors = 5, weight_func = "optimal", dist_power = 0.33),
  test_data = sero,
  threshold_value = 0.99
)
print(domain_scores)
#> # A tibble: 53 × 3
#>    .pred distance distance_pctl
#>    <dbl>    <dbl>         <dbl>
#>  1  528.    0.424          9.08
#>  2  405.    1.32          69.9 
#>  3  545.    1.01          60.7 
#>  4  599.    0.356          4.37
#>  5  585.    1.33          70.2 
#>  6  371.    0.452         18.7 
#>  7  483.    1.11          66.1 
#>  8  405.    0.321          3.49
#>  9  291.    0.573         25.3 
#> 10  405.    0.660         38.6 
#> # ℹ 43 more rows
```
…
